…
``` r
trainingset_v1d1_metadata
```

    ## # A tibble: 7,966 × 21
    ##     event_time ifo    peak_time peak_time_ns start_time start_time_ns duration
    ##          <dbl> <chr>      <dbl>        <dbl>      <dbl>         <dbl>    <dbl>
    ##  1 1134216193. L1    1134216192    931639909 1134216192     832031011   0.188 
    ##  2 1129359782. L1    1129359781    558593034 1129359781      47851085   0.942 
    ##  3 1127425469. L1    1127425468    976317882 1127425468     960937023   0.0469
    ##  4 1132636755. L1    1132636755    365233898 1132636754     951172113   0.824 
    ##  5 1132035853. L1    1132035853    197264909 1132035852     933837890   2.00  
    ##  6 1163421592. H1    1163421591    621093034 1163421591     492187023   0.383 
    ##  7 1135086850. L1    1135086850    427246093 1135086850     310547113   0.703 
    ##  8 1136285263. L1    1136285262    929687023 1136285262        976085   1.62  
    ##  9 1132651217. L1    1132651216    955077886 1132651216             0   1.25  
    ## 10 1132637477. L1    1132637476    677733898 1132637476     342772960   0.743 
    ## # ℹ 7,956 more rows
    ## # ℹ 14 more variables: event_id <dbl>, peak_frequency <dbl>,
    ## #   central_freq <dbl>, bandwidth <dbl>, amplitude <dbl>, snr <dbl>,
    ## #   gravityspy_id <chr>, label <chr>, sample_type <chr>, url1 <chr>,
    ## #   url2 <chr>, url3 <chr>, url4 <chr>, phase <dbl>
…
